<svg xmlns="http://www.w3.org/2000/svg" xmlns:xlink="http://www.w3.org/1999/xlink" viewBox="0 0 536.5 306.8">
  <defs>
    <clipPath id="clip-path">
      <rect x="-131.5" y="-126.16" width="800" height="432.96" fill="none"/>
    </clipPath>
  </defs>
  <title>anytime-feedback</title>
  <g style="isolation: isolate">
    <g id="background">
      <rect x="-131.5" y="-126.16" width="800" height="432.96" fill="#8dcecf"/>
    </g>
    <g id="image">
      <g clip-path="url(#clip-path)">
        <g>
          <g>
            <path d="M533.9,301l-26-101.32c-2.43-9.45-20-22.82-29.42-20.39h0c-4.54,1.17-2.35,2.27-1.18,6.81l31.19,121.43C509.64,312.07,535.07,305.53,533.9,301Z" fill="#487aaf" stroke="#165183" stroke-miterlimit="10" stroke-width="3"/>
            <path d="M509,305.66l2.25,8.76a8.55,8.55,0,0,0,10.37,6.13l6.88-1.77a8.55,8.55,0,0,0,6.13-10.37l-2.25-8.76Z" fill="#bc724c" stroke="#135182" stroke-miterlimit="10" stroke-width="3"/>
            <polygon points="482.6 179.11 519.1 321.2 512.31 318.59 476.65 179.75 482.6 179.11" fill="#7c66a7" opacity="0.34" style="mix-blend-mode: multiply"/>
            <rect x="404.09" y="196.35" width="97.91" height="133.79" rx="33.19" ry="33.19" fill="#a4a4a3" stroke="#165183" stroke-miterlimit="10" stroke-width="3"/>
            <polygon points="437.37 151.15 438.18 175.28 466.31 176.05 466.78 149.58 437.37 151.15" fill="#bc724c" stroke="#135182" stroke-miterlimit="10" stroke-width="3"/>
            <path d="M449.42,155.91c-20.06.89-41.93-6.24-45-38.39l-6-48.11a36.64,36.64,0,0,1,30.71-41.55l29-4.35a36.64,36.64,0,0,1,41.55,30.71l4.61,63.57c1.74,18.22-16,31.86-27.87,33.85-5.83,4.17-7.57,7.49-13.81,7.93C456,160,450.42,155.87,449.42,155.91Z" fill="#bc724c" stroke="#135182" stroke-miterlimit="10" stroke-width="3"/>
            <path d="M450.21,128.59a59.87,59.87,0,0,0,11.42.59,115.62,115.62,0,0,0,12.5-1.3" fill="none" stroke="#135182" stroke-linecap="round" stroke-miterlimit="10" stroke-width="3"/>
            <path d="M457,139.47a17.46,17.46,0,0,0,11-.74" fill="none" stroke="#135182" stroke-linecap="round" stroke-miterlimit="10" stroke-width="3"/>
            <path d="M454.16,82.59l.93,12a17.86,17.86,0,0,1-16.42,19.19L436,114a17.86,17.86,0,0,1-19.19-16.42l-.93-12" fill="#eec6b9" stroke="#135182" stroke-miterlimit="10" stroke-width="3"/>
            <path d="M506.51,79.65l.83,10.63a19.21,19.21,0,0,1-17.66,20.64h0A19.21,19.21,0,0,1,469,93.25l-.83-10.63" fill="#eec6b9" stroke="#135182" stroke-miterlimit="10" stroke-width="3"/>
            <line x1="464.23" y1="83.1" x2="511.41" y2="79.22" fill="none" stroke="#135182" stroke-miterlimit="10" stroke-width="3"/>
            <ellipse cx="445.87" cy="97.21" rx="3.2" ry="3.6" transform="translate(-10.41 89.47) rotate(-11.33)" fill="#135182"/>
            <ellipse cx="479.16" cy="95.49" rx="3.2" ry="3.6" transform="translate(-9.42 95.97) rotate(-11.33)" fill="#135182"/>
            <path d="M469,81.43l2.5,27.24a8.94,8.94,0,0,1-8,9.71h0a8.94,8.94,0,0,1-9.71-8" fill="#bc724c" stroke="#135182" stroke-miterlimit="10" stroke-width="3"/>
            <line x1="453.03" y1="85.06" x2="467.84" y2="84.02" fill="none" stroke="#135182" stroke-miterlimit="10" stroke-width="3"/>
            <line x1="401.68" y1="88.01" x2="455.92" y2="83.53" fill="none" stroke="#135182" stroke-miterlimit="10" stroke-width="3"/>
            <path d="M393.05,113.36s-8.57-12-.71-18.73,8.46-3.46,8.46-3.46l3.82,23.88S395.25,115.72,393.05,113.36Z" fill="#7c66a7" opacity="0.34" style="mix-blend-mode: multiply"/>
            <path d="M397.24,133.87s17.14-2.37,11-31.4c6.74-15.69,3.35-43.68,1.54-53.33,11-11.35,55.54,12.5,85.2-6.29,11.62-24.47-8.82-36.16-25.35-36.5-3-.06-4.43.13-1,2.46l4.54,4.34s-45.43-2.93-61.58,15.61c-2.06-6.21-3-12.42-5.51-10.24-3.17,2.74-7,10-2.31,16.55-2.87-5.47-13.6-4.41-15.2-3.18-5.62,4.33,2,6.52,7.35,9.11-7.74,5.54-16.75,14.21-16.52,33.61.24,21,11.5,40,18,49.27C391.9,130.22,397.24,133.87,397.24,133.87Z" fill="#35312f" stroke="#165183" stroke-linecap="round" stroke-linejoin="round" stroke-width="3"/>
            <path d="M495,42.85s3.41,27.25-79.35,5.57c6.26,25.51.28,77.85,2.81,82.58,5.91,11,18.46,18.73,35.3,18.58,25.7-.22,42.79-7.81,42.79-7.81s-6.53,7.61-20.44,10.14c-1.37.25-5.16,3.38-7.08,3.53-1,.08-1.24,4-2.37,4.06-2.68.13-5.51.21-8.42.27-6.44.14-13.26.2-19.74.58-.49,0-.69-5.22-1.17-5.29-12.06-1.79-22.55-9-25.41-14-6.51-11.45-21.79-37.88-21.29-53,0-1.44,0-16.32,0-17.91.26-15.12,16.22-28.68,19.9-33.6C430.54,44.11,480.78,43.16,495,42.85Z" fill="#7c66a7" opacity="0.34" style="mix-blend-mode: multiply"/>
            <path d="M395.34,313.58H504.45V234.32L503.89,211c-.74-19.5-9.6-29.32-24.45-34.38-8.14-2.77-20.55-1.25-28.12-1.15-7.19.09-20.72-1.67-29,1.52-14.65,5.62-24.77,7.9-27.16,29.44Z" fill="#487aaf" stroke="#165183" stroke-miterlimit="10" stroke-width="3"/>
            <path d="M474.13,313.12l-1.62-136.54s-11.63-1-21.19-1.06-21.25.91-21.25.91L435,312.2" fill="#edeced" stroke="#165183" stroke-miterlimit="10" stroke-width="3"/>
            <polyline points="431.33 177.89 431.9 167.3 451.09 174.44 470.85 166.5 471.07 177.69" fill="#edeced" stroke="#165183" stroke-linecap="round" stroke-linejoin="round" stroke-width="3"/>
            <polyline points="480.58 297.25 488.86 235.59 481.46 226.67 489.07 214.42 481.94 176.95" fill="none" stroke="#165183" stroke-linecap="round" stroke-linejoin="round" stroke-width="3"/>
            <polyline points="424.39 297.25 416.12 235.59 423.52 226.67 415.9 214.42 423.04 176.95" fill="none" stroke="#165183" stroke-linecap="round" stroke-linejoin="round" stroke-width="3"/>
            <path d="M411.17,183.61s-4.27,15-5.29,28.56,2.88,34.94,2.88,34.94l-12.57,2.32S390.91,194.49,411.17,183.61Z" fill="#7c66a7" opacity="0.34" style="mix-blend-mode: multiply"/>
            <path d="M404.62,115.05c-9,1.27-15.63-3.35-16.55-9.91s4.23-12.59,13.2-13.85" fill="#bc724c" stroke="#135182" stroke-miterlimit="10" stroke-width="3"/>
            <polygon points="480.31 176.95 480.31 313.12 473.12 313.61 472.51 176.58 480.31 176.95" fill="#7c66a7" opacity="0.34" style="mix-blend-mode: multiply"/>
            <polygon points="436.26 168.76 440.33 314.43 434.41 314.43 430.07 176.43 432.18 167.86 436.26 168.76" fill="#7c66a7" opacity="0.34" style="mix-blend-mode: multiply"/>
            <polyline points="451.32 175.52 438.92 187.16 432.18 176.34" fill="none" stroke="#165183" stroke-linecap="round" stroke-linejoin="round" stroke-width="3"/>
            <polyline points="451.32 175.52 465.2 187.16 471.94 176.34" fill="none" stroke="#165183" stroke-linecap="round" stroke-linejoin="round" stroke-width="3"/>
            <line x1="452.87" y1="177.06" x2="455.21" y2="313.12" fill="none" stroke="#165183" stroke-linecap="round" stroke-linejoin="round" stroke-width="3"/>
            <circle cx="459.93" cy="199.74" r="1.93" fill="#165183"/>
            <circle cx="459.93" cy="223.74" r="1.93" fill="#165183"/>
            <circle cx="459.93" cy="247.73" r="1.93" fill="#165183"/>
            <circle cx="459.93" cy="271.73" r="1.93" fill="#165183"/>
            <rect x="425.2" y="189.36" width="69.05" height="90.52" transform="translate(31.43 -53.41) rotate(6.88)" fill="#fff" stroke="#165183" stroke-miterlimit="10" stroke-width="3"/>
            <rect x="420.62" y="192.41" width="69.05" height="90.52" transform="translate(31.77 -52.84) rotate(6.88)" fill="#fff" stroke="#165183" stroke-miterlimit="10" stroke-width="3"/>
            <rect x="415.26" y="196.05" width="69.05" height="90.52" transform="translate(32.16 -52.17) rotate(6.88)" fill="#fff" stroke="#165183" stroke-miterlimit="10" stroke-width="3"/>
            <polygon points="414.77 179.49 415.9 263.25 403.37 263.25 398.01 262.23 409.13 182.12 414.77 179.49" fill="#7c66a7" opacity="0.34" style="mix-blend-mode: multiply"/>
            <g>
              <path d="M448.65,259.53s-58.79,11.75-62.55,8-3.66-27.69-3.66-27.69V210.68c0-9.76,15.38-29.29,25.13-29.29h0c4.69,0,1.12,3.83,1.12,8.52l.77,52.35,34.36-5.16C445.52,241.47,448.65,259.53,448.65,259.53Z" fill="#487aaf" stroke="#165183" stroke-miterlimit="10" stroke-width="3"/>
              <path d="M446.58,260.35l8.89-1.65a8.55,8.55,0,0,0,6.82-9.93l-1.3-7a8.55,8.55,0,0,0-9.93-6.82l-8.89,1.65Z" fill="#bc724c" stroke="#135182" stroke-miterlimit="10" stroke-width="3"/>
            </g>
          </g>
          <g>
            <path d="M3.1,297.16l26-101.32c2.43-9.45,20-22.82,29.42-20.39h0c4.54,1.17,2.35,2.27,1.18,6.81L28.53,303.7C27.36,308.24,1.93,301.7,3.1,297.16Z" fill="#487aaf" stroke="#165183" stroke-miterlimit="10" stroke-width="3"/>
            <path d="M28,301.83l-2.25,8.76a8.55,8.55,0,0,1-10.37,6.13L8.51,315a8.55,8.55,0,0,1-6.13-10.37l2.25-8.76Z" fill="#bc724c" stroke="#135182" stroke-miterlimit="10" stroke-width="3"/>
            <polygon points="54.4 175.28 17.91 317.37 24.69 314.75 60.35 175.91 54.4 175.28" fill="#7c66a7" opacity="0.34" style="mix-blend-mode: multiply"/>
            <rect x="35" y="192.52" width="97.91" height="133.79" rx="33.19" ry="33.19" transform="translate(167.91 518.83) rotate(-180)" fill="#a4a4a3" stroke="#165183" stroke-miterlimit="10" stroke-width="3"/>
            <polygon points="99.63 147.32 98.82 171.45 70.69 172.22 70.22 145.75 99.63 147.32" fill="#bc724c" stroke="#135182" stroke-miterlimit="10" stroke-width="3"/>
            <path d="M87.58,152.08c20.06.89,41.93-6.24,45-38.39l6-48.11A36.64,36.64,0,0,0,107.88,24l-29-4.35A36.64,36.64,0,0,0,37.33,50.39L32.72,114c-1.74,18.22,16,31.86,27.87,33.85,5.83,4.17,7.57,7.49,13.81,7.93C81,156.2,86.58,152,87.58,152.08Z" fill="#bc724c" stroke="#135182" stroke-miterlimit="10" stroke-width="3"/>
            <path d="M86.79,124.76a59.87,59.87,0,0,1-11.42.59,115.62,115.62,0,0,1-12.5-1.3" fill="none" stroke="#135182" stroke-linecap="round" stroke-miterlimit="10" stroke-width="3"/>
            <path d="M80,135.64a17.46,17.46,0,0,1-11-.74" fill="none" stroke="#135182" stroke-linecap="round" stroke-miterlimit="10" stroke-width="3"/>
            <path d="M82.84,78.76l-.93,12a17.86,17.86,0,0,0,16.42,19.19l2.69.21a17.86,17.86,0,0,0,19.19-16.42l.93-12" fill="#eec6b9" stroke="#135182" stroke-miterlimit="10" stroke-width="3"/>
            <path d="M30.49,75.82l-.83,10.63a19.21,19.21,0,0,0,17.66,20.64h0A19.21,19.21,0,0,0,68,89.42l.83-10.63" fill="#eec6b9" stroke="#135182" stroke-miterlimit="10" stroke-width="3"/>
            <line x1="72.77" y1="79.27" x2="25.59" y2="75.39" fill="none" stroke="#135182" stroke-miterlimit="10" stroke-width="3"/>
            <ellipse cx="91.13" cy="96.46" rx="3.6" ry="3.2" transform="translate(-21.35 166.87) rotate(-78.67)" fill="#135182"/>
            <ellipse cx="55.52" cy="94.74" rx="3.6" ry="3.2" transform="translate(-48.28 130.58) rotate(-78.67)" fill="#135182"/>
            <path d="M68,77.6l-2.5,27.24a8.94,8.94,0,0,0,8,9.71h0a8.94,8.94,0,0,0,9.71-8" fill="#bc724c" stroke="#135182" stroke-miterlimit="10" stroke-width="3"/>
            <line x1="83.97" y1="81.23" x2="69.16" y2="80.19" fill="none" stroke="#135182" stroke-miterlimit="10" stroke-width="3"/>
            <line x1="135.32" y1="84.18" x2="81.08" y2="79.69" fill="none" stroke="#135182" stroke-miterlimit="10" stroke-width="3"/>
            <path d="M144,109.53s8.57-12,.71-18.73-8.46-3.46-8.46-3.46l-3.82,23.88S141.75,111.89,144,109.53Z" fill="#7c66a7" opacity="0.34" style="mix-blend-mode: multiply"/>
            <path d="M139.76,130s-17.14-2.37-11-31.4C122,82.94,125.38,55,127.19,45.31,116.2,34,71.65,57.8,42,39,30.36,14.55,50.8,2.86,67.33,2.51c3-.06,4.43.13,1,2.46L63.82,9.32s45.43-2.93,61.58,15.61c2.06-6.21,3-12.42,5.51-10.24,3.17,2.74,7,10,2.31,16.55,2.87-5.47,13.6-4.41,15.2-3.18,5.62,4.33-2,6.52-7.35,9.11,7.74,5.54,16.75,14.21,16.52,33.61-.24,21-11.5,40-18,49.27C145.1,126.39,139.76,130,139.76,130Z" fill="#35312f" stroke="#165183" stroke-linecap="round" stroke-linejoin="round" stroke-width="3"/>
            <path d="M42,39s-3.41,27.25,79.35,5.57c-6.26,25.51-.28,77.85-2.81,82.58-5.91,11-18.46,18.73-35.3,18.58-25.7-.22-42.79-7.81-42.79-7.81s6.53,7.61,20.44,10.14c1.37.25,5.16,3.38,7.08,3.53,1,.08,1.24,4,2.37,4.06,2.68.13,5.51.21,8.42.27,6.44.14,13.26.2,19.74.58.49,0,.69-5.22,1.17-5.29,12.06-1.79,22.55-9,25.41-14,6.51-11.45,21.79-37.88,21.29-53,0-1.44,0-16.32,0-17.91-.26-15.12-16.22-28.68-19.9-33.6C106.46,40.28,56.22,39.33,42,39Z" fill="#7c66a7" opacity="0.34" style="mix-blend-mode: multiply"/>
            <path d="M141.66,309.75H32.55V230.49l.55-23.27c.74-19.5,9.6-29.32,24.45-34.38,8.14-2.77,20.55-1.25,28.12-1.15,7.19.09,20.72-1.67,29,1.52,14.65,5.62,24.77,7.9,27.16,29.44Z" fill="#487aaf" stroke="#165183" stroke-miterlimit="10" stroke-width="3"/>
            <path d="M62.87,309.29l1.62-136.54s11.63-1,21.19-1.06,21.25.91,21.25.91L102,308.36" fill="#edeced" stroke="#165183" stroke-miterlimit="10" stroke-width="3"/>
            <polyline points="105.67 174.06 105.1 163.47 85.91 170.61 66.15 162.67 65.94 173.86" fill="#edeced" stroke="#165183" stroke-linecap="round" stroke-linejoin="round" stroke-width="3"/>
            <polyline points="56.42 293.42 48.15 231.76 55.54 222.84 47.93 210.59 55.06 173.12" fill="none" stroke="#165183" stroke-linecap="round" stroke-linejoin="round" stroke-width="3"/>
            <polyline points="112.61 293.42 120.88 231.76 113.48 222.84 121.1 210.59 113.97 173.12" fill="none" stroke="#165183" stroke-linecap="round" stroke-linejoin="round" stroke-width="3"/>
            <path d="M125.83,179.78s4.27,15,5.29,28.56-2.88,34.94-2.88,34.94l12.57,2.32S146.09,190.66,125.83,179.78Z" fill="#7c66a7" opacity="0.34" style="mix-blend-mode: multiply"/>
            <path d="M132.38,111.22c9,1.27,15.63-3.35,16.55-9.91s-4.23-12.59-13.2-13.85" fill="#bc724c" stroke="#135182" stroke-miterlimit="10" stroke-width="3"/>
            <polygon points="56.69 173.12 56.69 309.29 63.88 309.78 64.49 172.75 56.69 173.12" fill="#7c66a7" opacity="0.34" style="mix-blend-mode: multiply"/>
            <polygon points="100.75 164.93 96.67 310.6 102.59 310.6 106.93 172.6 104.82 164.03 100.75 164.93" fill="#7c66a7" opacity="0.34" style="mix-blend-mode: multiply"/>
            <polyline points="85.68 171.69 98.08 183.32 104.82 172.51" fill="none" stroke="#165183" stroke-linecap="round" stroke-linejoin="round" stroke-width="3"/>
            <polyline points="85.68 171.69 71.8 183.32 65.06 172.51" fill="none" stroke="#165183" stroke-linecap="round" stroke-linejoin="round" stroke-width="3"/>
            <line x1="84.14" y1="173.23" x2="81.79" y2="309.29" fill="none" stroke="#165183" stroke-linecap="round" stroke-linejoin="round" stroke-width="3"/>
            <circle cx="89.07" cy="195.91" r="1.93" fill="#165183"/>
            <circle cx="89.07" cy="219.9" r="1.93" fill="#165183"/>
            <circle cx="89.07" cy="243.9" r="1.93" fill="#165183"/>
            <circle cx="88.07" cy="267.9" r="1.93" fill="#165183"/>
            <polygon points="122.23 175.66 121.1 259.41 133.63 259.41 138.99 258.39 127.87 178.29 122.23 175.66" fill="#7c66a7" opacity="0.34" style="mix-blend-mode: multiply"/>
            <g>
              <path d="M87.12,242.92l-24.55,6.31a1.75,1.75,0,0,1-2.29-.92L40.45,202.06a1.75,1.75,0,0,1,.92-2.29l24.55-6.31a1.75,1.75,0,0,1,2.29.92L88,240.62A1.75,1.75,0,0,1,87.12,242.92Z" fill="#a4a5a3" stroke="#165183" stroke-miterlimit="10" stroke-width="3"/>
              <circle cx="50.83" cy="204.24" r="2.29" transform="translate(-35.5 12.29) rotate(-10.24)" fill="#165183"/>
            </g>
            <path d="M82,249.63s56.17,18.55,59.93,14.8,10-18.11,10-18.11l2.63-39.47c0-9.76-15.38-29.29-25.13-29.29h0c-4.69,0-1.12,8.52-1.12,8.52l1.12,51.4-37-9.62C90.73,232.24,82,249.63,82,249.63Z" fill="#487aaf" stroke="#165183" stroke-miterlimit="10" stroke-width="3"/>
            <path d="M82,249.63l-8.15-3.92a8.55,8.55,0,0,1-4-11.37l3.08-6.4a8.55,8.55,0,0,1,11.37-4l8.15,3.92Z" fill="#bc724c" stroke="#135182" stroke-miterlimit="10" stroke-width="3"/>
          </g>
          <g>
            <g>
              <path d="M354.58,205.69c0,13.31-33.12,24.1-74,24.1s-74-10.79-74-24.1" fill="none" stroke="#2093cd" stroke-linecap="round" stroke-linejoin="round" stroke-width="3" stroke-dasharray="9 7"/>
              <path d="M198.28,201.5,201,215.23a1.52,1.52,0,0,0,2.49.85L214,206.84a1.52,1.52,0,0,0-.51-2.58l-13.25-4.5A1.52,1.52,0,0,0,198.28,201.5Z" fill="#2093cd"/>
            </g>
            <g>
              <path d="M182.43,182c0-13.31,33.12-24.1,74-24.1s74,10.79,74,24.1" fill="none" stroke="#2093cd" stroke-linecap="round" stroke-linejoin="round" stroke-width="3" stroke-dasharray="9 7"/>
              <path d="M338.72,186.14,336,172.42a1.52,1.52,0,0,0-2.49-.85L323,180.8a1.52,1.52,0,0,0,.51,2.58l13.25,4.5A1.52,1.52,0,0,0,338.72,186.14Z" fill="#2093cd"/>
            </g>
          </g>
        </g>
      </g>
    </g>
  </g>
</svg>
