<svg xmlns="http://www.w3.org/2000/svg" viewBox="0 0 153 153">
  <title>calendar3-icon</title>
  <g id="image">
    <text transform="translate(-548.5 -165.38)" font-size="22" fill="#135182" font-family="DINNextLTPro-Regular, DIN Next LT Pro">Dara can see how hard Allie and Pete are working, both on their own <tspan x="0" y="29">projects and with Teague and Reese, Panasonic’s interns. She wants to </tspan><tspan x="0" y="58">support her team and recognize them for their hard work and how they </tspan><tspan x="0" y="87">maintain Panasonic Avionic’s values. To demonstrate her support, </tspan><tspan font-family="DINNextLTPro-Bold, DIN Next LT Pro" font-weight="700"><tspan x="0" y="116">Dara should:</tspan></tspan></text>
    <g>
      <g>
        <g>
          <line x1="53.4" y1="53.98" x2="53.4" y2="43.45" fill="#ffffff" stroke="#2093cd" stroke-linecap="round" stroke-linejoin="round" stroke-width="3"/>
          <line x1="99.6" y1="53.98" x2="99.6" y2="43.45" fill="#ffffff" stroke="#2093cd" stroke-linecap="round" stroke-linejoin="round" stroke-width="3"/>
        </g>
        <line x1="39.32" y1="65.7" x2="113.68" y2="65.7" fill="#ffffff" stroke="#2093cd" stroke-linecap="round" stroke-linejoin="round" stroke-width="3"/>
        <rect x="39.32" y="55.11" width="74.37" height="54.44" rx="2.39" ry="2.39" fill="#ffffff" stroke="#2093cd" stroke-linecap="round" stroke-linejoin="round" stroke-width="3"/>
      </g>
      <g>
        <rect x="47.62" y="73.31" width="14.67" height="10.87" fill="#ffffff" stroke="#2093cd" stroke-linecap="round" stroke-linejoin="round" stroke-width="3"/>
        <rect x="69.16" y="73.31" width="14.67" height="10.87" fill="#fff" stroke="#2093cd" stroke-linecap="round" stroke-linejoin="round" stroke-width="3"/>
        <g>
          <rect x="47.62" y="90.45" width="14.67" height="10.87" fill="#fff" stroke="#2093cd" stroke-linecap="round" stroke-linejoin="round" stroke-width="3"/>
          <rect x="69.16" y="90.45" width="14.67" height="10.87" fill="#ffffff" stroke="#2093cd" stroke-linecap="round" stroke-linejoin="round" stroke-width="3"/>
        </g>
        <rect x="90.71" y="73.31" width="14.67" height="10.87" fill="#ffffff" stroke="#2093cd" stroke-linecap="round" stroke-linejoin="round" stroke-width="3"/>
        <line x1="47.62" y1="73.31" x2="62.29" y2="84.18" fill="#fff" stroke="#2093cd" stroke-linecap="round" stroke-linejoin="round" stroke-width="3"/>
        <line x1="69.16" y1="73.31" x2="83.84" y2="84.18" fill="#fff" stroke="#2093cd" stroke-linecap="round" stroke-linejoin="round" stroke-width="3"/>
        <line x1="90.71" y1="73.31" x2="105.38" y2="84.18" fill="#fff" stroke="#2093cd" stroke-linecap="round" stroke-linejoin="round" stroke-width="3"/>
      </g>
    </g>
  </g>
</svg>
