<?xml version="1.0" encoding="utf-8"?>
<!-- Generator: Adobe Illustrator 21.1.0, SVG Export Plug-In . SVG Version: 6.00 Build 0)  -->
<svg version="1.1" id="Layer_1" xmlns="http://www.w3.org/2000/svg" xmlns:xlink="http://www.w3.org/1999/xlink" x="0px" y="0px"
	 viewBox="0 0 153 153" style="enable-background:new 0 0 153 153;" xml:space="preserve">
<style type="text/css">
	.st0{clip-path:url(#SVGID_2_);}
	.st1{fill:#FFFFFF;stroke:#2093CD;stroke-width:3;stroke-miterlimit:10;}
	.st2{fill:#FFFFFF;stroke:#2093CD;stroke-width:3;stroke-linejoin:round;}
	.st3{fill:#2093CD;}
	.st4{fill:#FFFFFF;stroke:#2093CD;stroke-width:3;stroke-linecap:round;stroke-miterlimit:10;}
	.st5{fill:none;stroke:#2093CD;stroke-width:3;stroke-linecap:round;stroke-miterlimit:10;}
	.st6{fill:#FFFFFF;stroke:#2093CD;stroke-width:3;stroke-linecap:round;stroke-linejoin:round;}
</style>
<title>dara-icon</title>
<g id="image">
	<g>
		<defs>
			<path id="SVGID_1_" d="M4.3,3.5h148.4c0.4,0,0.8,0.3,0.8,0.8v148.4c0,0.4-0.3,0.8-0.8,0.8H4.3c-0.4,0-0.8-0.3-0.8-0.8V4.3
				C3.5,3.8,3.8,3.5,4.3,3.5z"/>
		</defs>
		<clipPath id="SVGID_2_">
			<use xlink:href="#SVGID_1_"  style="overflow:visible;"/>
		</clipPath>
		<g class="st0">
			<g>
				<path class="st1" d="M39.7,51.2c0,0-4.9,36.7-11.3,47.2c-7.8-0.7-19.9,7.8-20.1,25c-0.2,18,15.1,25,25.7,25s80.5-14.1,80.5-14.1
					s18.3-27.4-5.6-32.4c-7.8-2.8-6.3-51.5-6.3-51.5L39.7,51.2z"/>
				<path class="st1" d="M105.8,111.8c0,0,20.8,21.4,25.8,24.6l12.3-23l13.1,3.7L138,157.6c-0.8,1.3-2.4,1.7-3.7,1
					c-9.2-5-27.5-18.7-27.5-18.7"/>
				<path class="st1" d="M151.4,102.4l9.4,2.9c1.9,0.6,2.9,2.5,2.3,4.4c0,0,0,0.1,0,0.1l-3.3,9.6c-0.6,1.6-2.2,2.6-3.9,2.3l-9.1-3.8
					c-1.9-0.3-3.2-2.2-2.9-4.1c0-0.1,0-0.2,0.1-0.3l3-8.6C147.5,103,149.5,101.9,151.4,102.4C151.4,102.4,151.4,102.4,151.4,102.4z"
					/>
				<path class="st1" d="M36.4,196.6v-70.2c0-11.3,9.2-20.5,20.5-20.5h36.5c11.3,0,15.7,9.2,15.7,20.5v70.2L36.4,196.6z"/>
				<polyline class="st2" points="88.3,106.2 95.2,106.4 78.1,135.8 61,106.2 67.7,106.4 				"/>
				<polyline class="st1" points="84.1,108.3 84.1,93.9 71.4,92.5 71.4,108 				"/>
				<path class="st1" d="M80.6,99.1L80.6,99.1c-17.9-0.7-31.9-15.7-31.2-33.6c0,0,0,0,0,0L50,48.3c0.5-12.7,11.1-22.5,23.8-22.1
					l19,0.7c12.6,0.5,22.5,11.1,22,23.8l-0.6,17.2C113.5,85.8,98.5,99.8,80.6,99.1C80.6,99.1,80.6,99.1,80.6,99.1z"/>
				<path class="st1" d="M75,39.2c0,0-9.6,26.3-37.4,28.8c-2.5-26.8,12.5-52.3,35.9-54.9s38.3,10.9,42.8,29.4
					c6.3,1,12.4,4.5,10.5,9.1c-2.2,5.4-9.2,3.4-14.8,2.8C98.5,53,85.6,47.8,75,39.2z"/>
				
					<ellipse transform="matrix(3.681814e-02 -0.9993 0.9993 3.681814e-02 29.5987 160.525)" class="st3" cx="98.1" cy="64.9" rx="2.7" ry="2.7"/>
				
					<ellipse transform="matrix(3.681814e-02 -0.9993 0.9993 3.681814e-02 11.8207 141.0366)" class="st3" cx="79.1" cy="64.4" rx="2.7" ry="2.7"/>
				<path class="st4" d="M95.1,80.4c0,0-8.4,4.5-15.6-1.5"/>
				<polyline class="st4" points="87.6,109.6 87.6,103 68.3,103 68.3,109.6 				"/>
				<line class="st5" x1="78.1" y1="104.4" x2="78.1" y2="131.6"/>
				<line class="st5" x1="82.5" y1="107.3" x2="87.6" y2="109.9"/>
				<line class="st5" x1="73.6" y1="107.3" x2="68.4" y2="109.9"/>
				<line class="st5" x1="91.2" y1="73" x2="87.2" y2="72.7"/>
				<path class="st6" d="M54.1,117.9v79.8c0,3.5-2.9,6.4-6.4,6.4H41c-3.5,0-6.4-2.9-6.4-6.4v-71.3c0-8.8,4.3-19.6,16.4-19.6"/>
			</g>
		</g>
	</g>
</g>
</svg>
