<svg xmlns="http://www.w3.org/2000/svg" xmlns:xlink="http://www.w3.org/1999/xlink" viewBox="0 0 736 378">
  <defs>
    <clipPath id="clip-path">
      <rect x="-56" y="-9.31" width="836" height="387.49" fill="none"/>
    </clipPath>
  </defs>
  <title>hero-img</title>
  <g style="isolation: isolate">
    <g id="Layer_1" data-name="Layer 1">
      <g clip-path="url(#clip-path)">
        <path d="M270.33,277.86h28A24.15,24.15,0,0,1,322.45,302V343.1a13.23,13.23,0,0,1-13.23,13.23H259.41a13.23,13.23,0,0,1-13.23-13.23V302A24.15,24.15,0,0,1,270.33,277.86Z" fill="#a4a4a3" stroke="#165183" stroke-miterlimit="10" stroke-width="3"/>
        <path d="M248.3,341.3h74.15a0,0,0,0,1,0,0v4.77a11.55,11.55,0,0,1-11.55,11.55H262.59a14.29,14.29,0,0,1-14.29-14.29v-2A0,0,0,0,1,248.3,341.3Z" fill="#7c66a7" opacity="0.34" style="mix-blend-mode: multiply"/>
        <polyline points="257.37 353.6 257.37 458.96 279.07 458.96 279.07 353.6" fill="#a4a4a3" stroke="#165183" stroke-miterlimit="10" stroke-width="3"/>
        <polyline points="289.63 353.6 289.63 458.96 311.32 458.96 311.32 353.6" fill="#a4a4a3" stroke="#165183" stroke-miterlimit="10" stroke-width="3"/>
        <path d="M231.7,346.77V261.57c0-17.89,27.09-32.53,41.47-32.53h25.22c14.38,0,38.54,14.64,38.54,32.53v85.86H319.78v-5.8l-22.74,0H250.85v5.11Z" fill="#487aaf" stroke="#165183" stroke-miterlimit="10" stroke-width="3"/>
        <polyline points="274.98 341.66 274.98 229.05 297.04 229.05 297.04 341.66" fill="#b3d7f1" stroke="#165183" stroke-miterlimit="10" stroke-width="3"/>
        <path d="M297,237.5V221.62H275v16.55S286,247,297,237.5Z" fill="#ffe1ad" stroke="#165183" stroke-miterlimit="10" stroke-width="3"/>
        <line x1="251.45" y1="258.48" x2="251.04" y2="341.3" fill="none" stroke="#165183" stroke-linecap="round" stroke-miterlimit="10" stroke-width="3"/>
        <line x1="319.85" y1="259.86" x2="319.85" y2="347.12" fill="none" stroke="#165183" stroke-linecap="round" stroke-miterlimit="10" stroke-width="3"/>
        <path d="M244,162a9.8,9.8,0,0,0,.6,19.59" fill="#ffe1ad" stroke="#165183" stroke-miterlimit="10" stroke-width="3"/>
        <path d="M319.8,230.48l-65.2,3.19a18.56,18.56,0,0,1-19.06-17.93l-1-30.15a6.14,6.14,0,0,1,5.93-6.31l89.95-4a6.14,6.14,0,0,1,6.31,5.93l1,30.15A18.56,18.56,0,0,1,319.8,230.48Z" fill="#7d614e" stroke="#165183" stroke-miterlimit="10" stroke-width="3"/>
        <path d="M277.13,122.46h20.27A30.59,30.59,0,0,1,328,153.05V186.7a4.74,4.74,0,0,1-4.74,4.74h-68.5a8.23,8.23,0,0,1-8.23-8.23V153.05a30.59,30.59,0,0,1,30.59-30.59Z" transform="translate(-4.68 8.89) rotate(-1.76)" fill="#bb7e6f" stroke="#135182" stroke-miterlimit="10" stroke-width="3"/>
        <path d="M285.59,174.12h13.6A18.89,18.89,0,0,1,318.07,193v8.73a8.16,8.16,0,0,1-8.16,8.16H274.86a8.16,8.16,0,0,1-8.16-8.16V193a18.89,18.89,0,0,1,18.89-18.89Z" transform="translate(-5.75 9.06) rotate(-1.76)" fill="#7d614e"/>
        <path d="M288.82,174.22c-21.9.67-23.29,14.52-21.78,29.12" fill="none" stroke="#165183" stroke-linecap="round" stroke-miterlimit="10" stroke-width="3"/>
        <path d="M294.86,174c21.9-.67,24.19,13.07,23.52,27.73" fill="none" stroke="#165183" stroke-linecap="round" stroke-miterlimit="10" stroke-width="3"/>
        <path d="M298.87,169.07l.36,7.7a6.75,6.75,0,0,1-6.52,6.93h0a6.75,6.75,0,0,1-6.93-6.52l-.36-7.7" fill="#bb7e6f" stroke="#135182" stroke-miterlimit="10" stroke-width="3"/>
        <path d="M281.18,189.68s4.51,5.68,13.55,4.31a18.3,18.3,0,0,0,10.29-5" fill="none" stroke="#165183" stroke-linecap="round" stroke-linejoin="round" stroke-width="3"/>
        <polygon points="276.08 250.94 286.56 242.9 295.94 250.94 286.01 258.44 276.08 250.94" fill="#e27457" stroke="#165183" stroke-miterlimit="10" stroke-width="3"/>
        <polygon points="292.42 335.85 292.42 264.77 286.01 258.44 279.59 265.61 279.59 335.76 292.42 335.85" fill="#e27457" stroke="#165183" stroke-miterlimit="10" stroke-width="3"/>
        <polyline points="268.22 238.17 258.76 248.98 266.42 255.28 261.47 269.69 269.24 324.15" fill="none" stroke="#165183" stroke-linecap="round" stroke-miterlimit="10" stroke-width="3"/>
        <polyline points="301.85 322.44 309.2 269.69 304.24 255.28 311.9 248.98 302.44 238.17" fill="none" stroke="#165183" stroke-linecap="round" stroke-miterlimit="10" stroke-width="3"/>
        <path d="M255.84,192.41s-4.84,20.6,0,41.26c-4.84,1.41-18.82-5.89-20.3-17.93-1.05-8.53-2.55-32.9-2.55-32.9s5.85-5.85,10.81-5.4C245.14,184.2,248.32,191.58,255.84,192.41Z" fill="#7c66a7" opacity="0.34" style="mix-blend-mode: multiply"/>
        <path d="M307.28,231.42s-36.92,8.11-43.68,18.91c-3.86,6.18-5.07,15-5.4,21.43-.25,4.82,0,70.56,0,70.56H241.32s-.42-65.75-.49-70.6c-.12-8.54,2.41-19.94,7.18-26.79,7.83-11.26,18.3-14.41,18.3-14.41L298.39,229Z" fill="#7c66a7" opacity="0.34" style="mix-blend-mode: multiply"/>
        <polygon points="295.8 240.87 297.04 341.05 292.42 341.56 295.8 240.87" fill="#7c66a7" opacity="0.34" style="mix-blend-mode: multiply"/>
        <path d="M275.67,126.89s50.21,16.31,54.7,48.44c9.19-9.62,20.25-30.75,16.37-57.48C341.38,81,279.59,87.79,279.59,87.79Z" fill="#e27457" stroke="#165183" stroke-miterlimit="10" stroke-width="3"/>
        <path d="M246.68,186.5s29.4-47.64,49.26-98.75c-29.33-1.7-66.33,2.32-75.8,21.87C208.41,133.8,227.48,179,246.68,186.5Z" fill="#e27457" stroke="#165183" stroke-miterlimit="10" stroke-width="3"/>
        <path d="M288.82,87.46S264.58,148,249.53,166.78" fill="none" stroke="#165183" stroke-linecap="round" stroke-linejoin="round" stroke-width="3"/>
        <path d="M285.69,92.26s-47-1.37-59.35,21" fill="none" stroke="#165183" stroke-linecap="round" stroke-linejoin="round" stroke-width="3"/>
        <path d="M284.32,98.34s-46.56,2.19-60.27,35.29" fill="none" stroke="#165183" stroke-linecap="round" stroke-linejoin="round" stroke-width="3"/>
        <path d="M268.22,113.28s-14,37.24-31.61,52.43" fill="none" stroke="#165183" stroke-linecap="round" stroke-linejoin="round" stroke-width="3"/>
        <path d="M293.1,94.86s34.93-2.6,52.62,18.42" fill="none" stroke="#165183" stroke-linecap="round" stroke-linejoin="round" stroke-width="3"/>
        <path d="M281.18,122.63c20.1,5.84,39.3,16.26,46.68,28.49,6.54,10.84,6.54,19.1,6.54,19.1" fill="none" stroke="#165183" stroke-linecap="round" stroke-linejoin="round" stroke-width="3"/>
        <path d="M308,104s34,4.44,39.45,27.3" fill="none" stroke="#165183" stroke-linecap="round" stroke-linejoin="round" stroke-width="3"/>
        <path d="M285.42,113.28S316.58,111,332,133.63" fill="none" stroke="#165183" stroke-linecap="round" stroke-linejoin="round" stroke-width="3"/>
        <circle cx="307.4" cy="163.12" r="3.6" transform="translate(-4.53 8.84) rotate(-1.64)" fill="#165183"/>
        <circle cx="275.6" cy="163.08" r="3.6" transform="translate(-4.54 7.94) rotate(-1.64)" fill="#165183"/>
        <path d="M288.82,199.43s6,3.23,11.31-.69" fill="none" stroke="#165183" stroke-linecap="round" stroke-linejoin="round" stroke-width="3"/>
        <path d="M249.53,348v8a4.54,4.54,0,0,1-4.53,4.53h-8a4.54,4.54,0,0,1-4.53-4.53v-8" fill="#bb7e6f" stroke="#135182" stroke-miterlimit="10" stroke-width="3"/>
        <path d="M336.28,348v8a4.54,4.54,0,0,1-4.53,4.53h-8a4.54,4.54,0,0,1-4.53-4.53v-8" fill="#bb7e6f" stroke="#135182" stroke-miterlimit="10" stroke-width="3"/>
        <path d="M319.25,264.86s-5.76,47-6.1,76.44c3.31.33,6.63.32,6.63.32Z" fill="#7c66a7" opacity="0.34" style="mix-blend-mode: multiply"/>
        <path d="M278.91,128.47s34.25,11.8,48.64,37.24c-.36,1.13-25.69-21.08-45.94-30.23-6.63,15.18-22.84,44.71-30.15,55.82l-4.09-6.85Z" fill="#7c66a7" opacity="0.34" style="mix-blend-mode: multiply"/>
        <path d="M239.57,94s-14.33,21.37-5.05,52.39,17.9,30.4,17.9,30.4l-5.74,9.68s-21.79-12.32-29.23-48.42S239.57,94,239.57,94Z" fill="#7c66a7" opacity="0.34" style="mix-blend-mode: multiply"/>
        <path d="M295.94,87.75s.8,23.27-4.53,45.31c-4.7-1.74-12.5-4.59-12.5-4.59Z" fill="#7c66a7" opacity="0.34" style="mix-blend-mode: multiply"/>
        <rect x="258.76" y="353.56" width="7.84" height="100.76" fill="#7c66a7" opacity="0.34" style="mix-blend-mode: multiply"/>
        <rect x="290.94" y="353.56" width="7.84" height="100.76" fill="#7c66a7" opacity="0.34" style="mix-blend-mode: multiply"/>
        <path d="M319.85,259.86h0a7.92,7.92,0,0,1,7.92,7.92v92.72a0,0,0,0,1,0,0h-7.92a0,0,0,0,1,0,0V259.86A0,0,0,0,1,319.85,259.86Z" fill="#7c66a7" opacity="0.34" style="mix-blend-mode: multiply"/>
        <g>
          <path d="M568.81,381.74V281c0-9.4,13.16-26.08,22.56-26.08h0c4.52,0,2.74,1.56,2.74,6.07V381.74C594.11,386.26,568.81,386.26,568.81,381.74Z" fill="#487aaf" stroke="#165183" stroke-miterlimit="10" stroke-width="3"/>
          <polygon points="587.47 255.71 587.47 397.05 593.17 392.99 593.17 254.88 587.47 255.71" fill="#7c66a7" opacity="0.34" style="mix-blend-mode: multiply"/>
          <rect x="581.61" y="267.15" width="94.33" height="128.9" rx="31.97" ry="31.97" transform="translate(1257.54 663.2) rotate(-180)" fill="#a4a4a3" stroke="#165183" stroke-miterlimit="10" stroke-width="3"/>
          <polygon points="643.87 223.61 643.1 246.85 615.99 247.6 615.54 222.09 643.87 223.61" fill="#bc724c" stroke="#135182" stroke-miterlimit="10" stroke-width="3"/>
          <path d="M632.27,228.19c19.33.86,40.4-6,43.34-37l5.8-46.35a35.3,35.3,0,0,0-29.59-40l-27.93-4.19a35.3,35.3,0,0,0-40,29.59l-4.45,61.25c-1.67,17.55,15.43,30.69,26.85,32.61,5.61,4,7.29,7.21,13.3,7.64C625.89,232.17,631.3,228.15,632.27,228.19Z" fill="#bc724c" stroke="#135182" stroke-miterlimit="10" stroke-width="3"/>
          <path d="M631.5,201.87s-11.57,6.93-21.12-1.43" fill="none" stroke="#135182" stroke-linecap="round" stroke-miterlimit="10" stroke-width="3"/>
          <path d="M624.94,212.36a16.82,16.82,0,0,1-10.56-.71" fill="none" stroke="#135182" stroke-linecap="round" stroke-miterlimit="10" stroke-width="3"/>
          <path d="M627.7,157.56l-.9,11.53a17.21,17.21,0,0,0,15.82,18.49l2.59.2A17.21,17.21,0,0,0,663.71,172l.9-11.53" fill="#eec6b9" stroke="#135182" stroke-miterlimit="10" stroke-width="3"/>
          <path d="M577.27,154.72,576.47,165a18.5,18.5,0,0,0,17,19.88h0a18.5,18.5,0,0,0,19.88-17l.79-10.24" fill="#eec6b9" stroke="#135182" stroke-miterlimit="10" stroke-width="3"/>
          <line x1="618" y1="158.05" x2="572.54" y2="154.31" fill="none" stroke="#135182" stroke-miterlimit="10" stroke-width="3"/>
          <ellipse cx="635.39" cy="173.18" rx="3.47" ry="3.08" transform="translate(340.79 762.18) rotate(-78.67)" fill="#135182"/>
          <ellipse cx="592.86" cy="169.72" rx="3.47" ry="3.08" transform="translate(310 717.7) rotate(-78.67)" fill="#135182"/>
          <path d="M613.38,156.44,611,182.68a8.61,8.61,0,0,0,7.74,9.35h0a8.61,8.61,0,0,0,9.35-7.74" fill="#bc724c" stroke="#135182" stroke-miterlimit="10" stroke-width="3"/>
          <line x1="628.79" y1="159.94" x2="614.52" y2="158.93" fill="none" stroke="#135182" stroke-miterlimit="10" stroke-width="3"/>
          <line x1="678.26" y1="162.78" x2="626" y2="158.46" fill="none" stroke="#135182" stroke-miterlimit="10" stroke-width="3"/>
          <path d="M686.57,187.2s8.25-11.52.69-18-8.15-3.34-8.15-3.34l-3.68,23S684.45,189.48,686.57,187.2Z" fill="#7c66a7" opacity="0.34" style="mix-blend-mode: multiply"/>
          <path d="M682.54,207s-16.51-2.28-10.63-30.25c-6.49-15.12-3.23-42.08-1.48-51.38-10.58-10.93-53.51,12-82.09-6.06-11.19-23.58,8.49-34.84,24.42-35.17,2.94-.06,4.27.13,1,2.37l-4.37,4.19s43.77-2.82,59.33,15c2-6,2.88-12,5.31-9.86,3,2.64,6.77,9.68,2.22,15.94,2.77-5.27,13.1-4.25,14.64-3.06,5.42,4.17-1.88,6.28-7.08,8.78,7.46,5.33,16.14,13.69,15.92,32.38-.23,20.19-11.08,38.53-17.34,47.47C687.68,203.44,682.54,207,682.54,207Z" fill="#35312f" stroke="#165183" stroke-linecap="round" stroke-linejoin="round" stroke-width="3"/>
          <path d="M588.34,119.27s-3.29,26.25,76.44,5.36c-6,24.58-.27,75-2.71,79.56-5.69,10.6-17.78,18-34,17.9-24.76-.22-41.22-7.53-41.22-7.53s6.29,7.33,19.7,9.77c1.32.24,5,3.25,6.82,3.41,1,.08,1.2,3.86,2.28,3.91,2.59.13,5.31.2,8.11.26,6.2.13,12.77.19,19,.56.47,0,.67-5,1.13-5.09,11.62-1.72,21.72-8.66,24.48-13.5,6.27-11,21-36.49,20.51-51.1,0-1.39,0-15.72,0-17.26-.25-14.56-15.63-27.63-19.17-32.37C650.45,120.49,602,119.57,588.34,119.27Z" fill="#7c66a7" opacity="0.34" style="mix-blend-mode: multiply"/>
          <path d="M684.37,380.1H579.25V303.74l.53-22.42c.71-18.79,9.25-28.24,23.56-33.12,7.84-2.67,19.8-1.2,27.09-1.11,6.93.09,20-1.61,28,1.47,14.11,5.42,23.86,7.61,26.17,28.36Z" fill="#487aaf" stroke="#165183" stroke-miterlimit="10" stroke-width="3"/>
          <path d="M608.46,379.65,610,248.11s11.21-.93,20.41-1,20.47.88,20.47.88l-4.74,130.8" fill="#edeced" stroke="#165183" stroke-miterlimit="10" stroke-width="3"/>
          <polyline points="649.69 249.37 649.14 239.17 630.65 246.05 611.62 238.4 611.41 249.18 612.92 251.67" fill="#edeced" stroke="#165183" stroke-linecap="round" stroke-linejoin="round" stroke-width="3"/>
          <polyline points="602.25 364.36 594.27 304.96 601.4 296.36 594.07 284.56 600.94 248.47" fill="none" stroke="#165183" stroke-linecap="round" stroke-linejoin="round" stroke-width="3"/>
          <polyline points="656.38 364.36 664.35 304.96 657.22 296.36 664.56 284.56 657.68 248.47" fill="none" stroke="#165183" stroke-linecap="round" stroke-linejoin="round" stroke-width="3"/>
          <path d="M669.12,254.88s4.12,14.46,5.09,27.52-2.77,33.66-2.77,33.66l12.11,2.23S688.64,265.36,669.12,254.88Z" fill="#7c66a7" opacity="0.34" style="mix-blend-mode: multiply"/>
          <path d="M679.71,390h8.88a8.23,8.23,0,0,0,8.21-8.21V281c0-9.4-14.82-28.21-24.22-28.21h0c-4.52,0-1.08,3.69-1.08,8.21V381.74A8.23,8.23,0,0,0,679.71,390Z" fill="#487aaf" stroke="#165183" stroke-miterlimit="10" stroke-width="3"/>
          <path d="M675.43,188.83c8.64,1.22,15.05-3.22,15.95-9.54s-4.07-12.13-12.71-13.35" fill="#bc724c" stroke="#135182" stroke-miterlimit="10" stroke-width="3"/>
          <polygon points="688.91 264.19 688.91 397.05 695.84 390.19 696.79 280.96 688.91 264.19" fill="#7c66a7" opacity="0.34" style="mix-blend-mode: multiply"/>
          <polygon points="665.17 252.35 665.17 379.65 672.11 380.13 670.6 254.88 665.17 252.35" fill="#7c66a7" opacity="0.34" style="mix-blend-mode: multiply"/>
          <polygon points="602.5 248.47 602.5 379.65 609.43 380.13 610.02 248.11 602.5 248.47" fill="#7c66a7" opacity="0.34" style="mix-blend-mode: multiply"/>
          <polygon points="644.95 240.57 641.02 380.92 646.73 380.92 650.9 247.97 648.88 239.71 644.95 240.57" fill="#7c66a7" opacity="0.34" style="mix-blend-mode: multiply"/>
          <polyline points="630.43 247.09 642.38 258.3 648.88 247.88" fill="none" stroke="#165183" stroke-linecap="round" stroke-linejoin="round" stroke-width="3"/>
          <polyline points="630.43 247.09 617.06 258.3 610.57 247.88" fill="none" stroke="#165183" stroke-linecap="round" stroke-linejoin="round" stroke-width="3"/>
          <line x1="628.95" y1="248.57" x2="626.68" y2="379.65" fill="none" stroke="#165183" stroke-linecap="round" stroke-linejoin="round" stroke-width="3"/>
          <circle cx="634.14" cy="270.42" r="1.86" fill="#165183"/>
          <circle cx="633.14" cy="293.54" r="1.86" fill="#165183"/>
          <circle cx="633.14" cy="316.66" r="1.86" fill="#165183"/>
          <circle cx="633.14" cy="339.78" r="1.86" fill="#165183"/>
        </g>
        <g>
          <path d="M69.85,156.54s-7.29,54.12-16.65,69.73c-11.45-1-29.4,11.45-29.66,36.95-.27,26.53,22.38,36.95,38,36.95s118.91-20.82,118.91-20.82,27.06-40.59-8.33-47.88c-11.45-4.16-9.37-76-9.37-76Z" fill="#2b2826" stroke="#165183" stroke-miterlimit="10" stroke-width="3"/>
          <path d="M74.8,180.82s-2.08,41.63-7.63,52c-11.8,1.39-33.3,7.63-30.53,32.61s39.55,27.75,39.55,27.75l104.25-13.88s9.66-21.38,9.77-30.65c.12-10-9.6-15.15-18.1-17.23-4.34-1.39-13.36-22.2-13.36-22.2L94.92,171.8Z" fill="#7c66a7" opacity="0.34" style="mix-blend-mode: multiply"/>
          <path d="M140.6,393.6h-35c-20.28,0-36.87-15.28-36.87-34v-69c0-18.68,16.59-34,36.87-34h35c20.28,0,30,15.28,30,34l-.15,69C170.4,378.32,160.88,393.6,140.6,393.6Z" fill="#a4a4a3" stroke="#165183" stroke-miterlimit="10" stroke-width="3"/>
          <path d="M64.91,371.24V267.65a30.36,30.36,0,0,1,30.27-30.27h53.95c16.65,0,23.2,13.62,23.2,30.27V371.24Z" fill="#d6792d" stroke="#165183" stroke-miterlimit="10" stroke-width="3"/>
          <polyline points="141.67 237.72 151.81 237.98 126.58 281.43 101.34 237.72 111.22 237.98" fill="#edeced" stroke="#165183" stroke-linejoin="round" stroke-width="3"/>
          <polyline points="135.42 240.84 135.42 219.51 116.69 217.42 116.69 240.32" fill="#e4997d" stroke="#135182" stroke-miterlimit="10" stroke-width="3"/>
          <path d="M132.18,120.12h0A47.88,47.88,0,0,1,180.05,168v25.45a33.87,33.87,0,0,1-33.87,33.87h-28A33.87,33.87,0,0,1,84.3,193.45V168a47.88,47.88,0,0,1,47.88-47.88Z" transform="translate(257.88 352.18) rotate(-177.89)" fill="#e4997d" stroke="#135182" stroke-miterlimit="10" stroke-width="3"/>
          <path d="M121.89,138.85s-14.05,38.77-55.16,42.41c-3.64-39.55,18.45-77.13,53-81.07s56.57,16.13,63.21,43.45c9.24,1.45,18.29,6.62,15.49,13.42-3.3,8-13.57,5-21.86,4.16C143.33,157.92,121.89,138.85,121.89,138.85Z" fill="#2b2826" stroke="#165183" stroke-miterlimit="10" stroke-width="3"/>
          <circle cx="157.49" cy="179.67" r="3.94" transform="matrix(0.04, -1, 1, 0.04, -27.85, 330.44)" fill="#165183"/>
          <circle cx="127.96" cy="177.44" r="3.94" transform="translate(-54.06 298.79) rotate(-87.89)" fill="#165183"/>
          <path d="M151.69,199.55s-12.36,6.59-23-2.24" fill="none" stroke="#135182" stroke-linecap="round" stroke-miterlimit="10" stroke-width="3"/>
          <polyline points="140.63 242.66 140.63 233.04 112 233.04 112 242.66" fill="#edeced" stroke="#165183" stroke-linecap="round" stroke-miterlimit="10" stroke-width="3"/>
          <line x1="126.58" y1="235.12" x2="126.58" y2="275.19" fill="none" stroke="#165183" stroke-linecap="round" stroke-miterlimit="10" stroke-width="3"/>
          <line x1="133.08" y1="239.28" x2="140.63" y2="243.18" fill="none" stroke="#165183" stroke-linecap="round" stroke-miterlimit="10" stroke-width="3"/>
          <line x1="119.81" y1="239.28" x2="112.26" y2="243.18" fill="none" stroke="#165183" stroke-linecap="round" stroke-miterlimit="10" stroke-width="3"/>
          <line x1="145.96" y1="188.62" x2="139.98" y2="188.29" fill="none" stroke="#165183" stroke-linecap="round" stroke-miterlimit="10" stroke-width="3"/>
          <path d="M125.45,143.36s.69,13.18,47.88,26.37c-.29,10.81-3.57,30.58-14.57,39.55-18.73,15.26-43,11.8-58.28,3.47,17.35,18.73,45.79,15.26,63.83,2.08s17.35-52.73,17.35-52.73Z" fill="#7c66a7" opacity="0.34" style="mix-blend-mode: multiply"/>
          <path d="M168.64,262.66l4.69,18.11-1,90.47h-9.62S161.5,295.83,161.5,285C161.5,276.43,168.64,262.66,168.64,262.66Z" fill="#7c66a7" opacity="0.34" style="mix-blend-mode: multiply"/>
          <path d="M123.37,139.89s-5.55,34-37.47,50c-2.78-1.39-1.77-12.16-1.77-12.16S115.73,160,123.37,139.89Z" fill="#7c66a7" opacity="0.34" style="mix-blend-mode: multiply"/>
          <path d="M198.39,157.06s-24.37-1.91-45.88-9.54-33.3-20.12-33.3-20.12-14.56,30.11-25,37.47c-11.8,8.33-27.49,16.39-27.49,16.39s33.74-7.37,40-17.78,16.65-23.59,16.65-23.59S165.86,172.15,198.39,157.06Z" fill="#7c66a7" opacity="0.34" style="mix-blend-mode: multiply"/>
          <rect x="89.1" y="371.29" width="83.48" height="9.16" fill="#edeced" stroke="#165183" stroke-linejoin="round" stroke-width="3"/>
          <polygon points="72.24 336.24 71.87 371.24 64.91 371.24 65.59 336.31 72.24 336.24" fill="#7c66a7" opacity="0.34" style="mix-blend-mode: multiply"/>
          <path d="M92.41,259.91v-6.25s9.31,8.35,8.89,37.5c-.27,18.74,1.28,80.61,1.28,80.61l-12.24-.66Z" fill="#7c66a7" opacity="0.34" style="mix-blend-mode: multiply"/>
          <path d="M91.16,255v52.13L112,305.83c0,5.21,1.3,15.89,1.3,15.89s-38.64,15.17-44.62,12.46-6.4-14.49-6.4-14.49v-52c0-13,6.4-29,24.23-29" fill="#d6792d" stroke="#165183" stroke-linecap="round" stroke-linejoin="round" stroke-width="3"/>
          <path d="M107.07,303.2l15.87-4.08c3.24-.83,6.24.91,6.62,3.85l1.93,14.87a6.14,6.14,0,0,1-4.17,6.21l-16.12,2.61c-3.29,1.25-6.68-.29-7.28-3.3L102.24,310C101.66,307.08,103.84,304,107.07,303.2Z" fill="#e4997d" stroke="#135182" stroke-miterlimit="10" stroke-width="3"/>
        </g>
        <g>
          <path d="M424.72,314.83l4.81-74.09-2.08,1.12c-11.37,1.8-15.81,6.8-17.32,23.85L405,319.29l-43.89-9-7.89,13.23L415.79,346" fill="#3a6284" stroke="#165183" stroke-miterlimit="10" stroke-width="3"/>
          <path d="M416.17,388.09V267.29c0-25.75,12.51-32.44,27.81-32.44h45c15.29,0,27.81,14.6,27.81,32.44v120.8" fill="#487aaf" stroke="#165183" stroke-miterlimit="10" stroke-width="3"/>
          <polyline points="448.45 235.22 441.54 235.5 454.66 270.87 486.55 235.22 475.95 235.5" fill="#e4997d" stroke="#135182" stroke-linecap="round" stroke-linejoin="round" stroke-width="3"/>
          <polygon points="411.66 489.22 524.34 489.22 516.88 345.99 415.79 345.99 411.66 489.22" fill="#3a6284" stroke="#165183" stroke-miterlimit="10" stroke-width="3"/>
          <polyline points="470.1 238.01 470.1 213.47 450.02 215.7 450.02 238.57" fill="#e4997d" stroke="#135182" stroke-miterlimit="10" stroke-width="3"/>
          <path d="M473.93,235.5l-.51,154.11h34L505.47,262S507.38,238.57,473.93,235.5Z" fill="#3a6284" stroke="#165183" stroke-miterlimit="10" stroke-width="3"/>
          <path d="M497.14,272.4l-4.72,115.7,5.32,1.52s3.32-21.15,7.44-26.22c0-14.87-.6-98.43-7.29-101.41Z" fill="#7c66a7" opacity="0.34" style="mix-blend-mode: multiply"/>
          <path d="M508.93,155.87s24.92,22,17.24,70.15c-3,19-20.81,13.76-31.05,31.22s-6.32,34.25-19.65,38.66c-30.13-49.2,3.48-66,8.89-76.39,10.75-20.61,9.8-62.35,9.8-62.35Z" fill="#873526" stroke="#165183" stroke-miterlimit="10" stroke-width="3"/>
          <path d="M446.87,109h30a36.3,36.3,0,0,1,36.3,36.3v27.27a51.3,51.3,0,0,1-51.3,51.3h0a51.3,51.3,0,0,1-51.3-51.3V145.25A36.3,36.3,0,0,1,446.87,109Z" transform="translate(4.05 -10.83) rotate(1.35)" fill="#e4997d" stroke="#135182" stroke-miterlimit="10" stroke-width="3"/>
          <path d="M433.79,118.23s43.65,53.29,87.38,59.84c15-39.16,5.34-68.55-28-85.2-19.74-9.87-41.07-11.44-61.7,7.29-15.35,1.73-23.2,13.24-24.22,21.06-1.43,10.95.36,15.77,7.88,17.34A58.49,58.49,0,0,0,433.79,118.23Z" fill="#873526" stroke="#165183" stroke-miterlimit="10" stroke-width="3"/>
          <circle cx="432.37" cy="168.11" r="4.22" transform="translate(254.12 596.4) rotate(-88.65)" fill="#165183"/>
          <circle cx="466.5" cy="169.27" r="4.22" transform="translate(286.29 631.66) rotate(-88.65)" fill="#165183"/>
          <path d="M459.5,194.27c-9.47,0-20.66-.26-20.66-.26s2.48,9,10,9.31C458.69,203.69,459.5,194.27,459.5,194.27Z" fill="#c17057" stroke="#135182" stroke-linecap="round" stroke-linejoin="round" stroke-width="3"/>
          <line x1="446.81" y1="183.06" x2="453.23" y2="183.1" fill="none" stroke="#165183" stroke-linecap="round" stroke-miterlimit="10" stroke-width="3"/>
          <path d="M433.79,118.23s3.62,15.19-15.38,31c-.39,11.58-7.09,38.4,11.83,55.11,19.41,17.15,46.18,13.8,63,5.88-19.76,18.92-50,13.37-68.41-1.9s-12.14-69.87-12.14-69.87Z" fill="#7c66a7" opacity="0.34" style="mix-blend-mode: multiply"/>
          <path d="M433.79,118.23s5.27,36,76.55,68.4c3.06-1.31,2.68-12.9,2.68-12.9S440.66,140.24,433.79,118.23Z" fill="#7c66a7" opacity="0.34" style="mix-blend-mode: multiply"/>
          <path d="M407.67,137s.54.92,8.51-5.11c11.63-8.81,16.69-25.35,16.69-25.35s59.51,44.31,70.18,52.86c12.08,9.67,18.13,18.69,18.13,18.69s-20.69-10-32.42-15.61c-13.31-6.38-55-44.23-55-44.23S418.18,153,407.67,137Z" fill="#7c66a7" opacity="0.34" style="mix-blend-mode: multiply"/>
          <path d="M496.18,160.25c-14.9-3.82-40.54,2.3-40.54,2.3S457.47,180,475.7,180C489.77,180,497,171.85,496.18,160.25Z" fill="none" stroke="#e27457" stroke-miterlimit="10" stroke-width="3"/>
          <path d="M407.82,155.88c12.3-1.54,38.14,6.47,38.14,6.47s-3.09,18.11-21,14.52C410.64,174,406.72,167.33,407.82,155.88Z" fill="none" stroke="#e27457" stroke-miterlimit="10" stroke-width="3"/>
          <path d="M435.31,236.4l1.28,153.21H415l1.79-126.19S418.27,240.53,435.31,236.4Z" fill="#3a6284" stroke="#165183" stroke-miterlimit="10" stroke-width="3"/>
          <path d="M530.89,328.32l-2-69.86a14,14,0,0,0-12.43-15.38h0a14,14,0,0,0-15.38,12.43l3.51,65.87" fill="#3a6284" stroke="#165183" stroke-miterlimit="10" stroke-width="3"/>
          <line x1="427.45" y1="241.86" x2="436.05" y2="325.7" fill="none" stroke="#165183" stroke-miterlimit="10" stroke-width="3"/>
          <line x1="482.25" y1="291.11" x2="474.84" y2="338.47" fill="none" stroke="#165183" stroke-miterlimit="10" stroke-width="3"/>
          <path d="M328.12,303.44l4-6.06a4.83,4.83,0,0,1,6.68-1.33l13.86,9,1-4.81a1.77,1.77,0,0,1,1.9-1.63l2.67.2a1.77,1.77,0,0,1,1.63,1.9L359.4,308c-.07,1-1.89,4.48-2.73,5.73l-4,6.06a4.83,4.83,0,0,1-6.68,1.33l-16.49-11A4.83,4.83,0,0,1,328.12,303.44Z" fill="#e4997d" stroke="#135182" stroke-linecap="round" stroke-linejoin="round" stroke-width="3"/>
          <polyline points="530.96 327.58 528.06 342.16 516.77 398.9 498.77 393.86 504.57 320.96" fill="#3a6284" stroke="#165183" stroke-miterlimit="10" stroke-width="3"/>
          <polygon points="499.42 400.29 467.28 400.29 467.28 345.99 473.42 345.99 473.42 389.61 497.74 389.61 498.77 393.86 499.42 400.29" fill="#7c66a7" opacity="0.34" style="mix-blend-mode: multiply"/>
          <polygon points="441.54 345.99 441.54 398.9 416.17 398.9 416.17 389.61 436.58 389.61 436.58 345.99 441.54 345.99" fill="#7c66a7" opacity="0.34" style="mix-blend-mode: multiply"/>
          <path d="M516.44,243.08l6.15,88.32-11.84,65.81-1.48,25.65,5.31-4.26,2.24-29,13.75-72-2.94-66.53S522.52,242.38,516.44,243.08Z" fill="#7c66a7" opacity="0.34" style="mix-blend-mode: multiply"/>
          <polygon points="475.47 295.89 473.42 345.99 467.28 345.99 467.37 283.78 475.47 295.89" fill="#7c66a7" opacity="0.34" style="mix-blend-mode: multiply"/>
          <polygon points="468 229.3 452.04 229.3 450.02 224.48 468.85 224.48 468 229.3" fill="#7c66a7" opacity="0.34" style="mix-blend-mode: multiply"/>
          <polygon points="441.54 240.74 445.96 345.99 436.58 345.99 435.31 236.4 441.54 235.5 441.54 240.74" fill="#7c66a7" opacity="0.34" style="mix-blend-mode: multiply"/>
          <path d="M411.68,270.86l-4,62.27-79.54-29.69,1.33,6.68,16.49,11,26.83,11.95,43,12.91s2.15-85.73,1.84-88,3.55-12.18,3.55-12.18L415,248.24l-4.83,17.46Z" fill="#7c66a7" opacity="0.34" style="mix-blend-mode: multiply"/>
          <path d="M521.18,178.07s2.28,35.28-1.25,40.23-33.55,16.3-41.38,23.56-11.18,41.92-11.18,41.92-10.3-20.6-5.49-30.74,14.07-25.43,27.06-37.08,21.4-29.33,21.4-29.33l2.68-12.9Z" fill="#7c66a7" opacity="0.34" style="mix-blend-mode: multiply"/>
        </g>
        <path d="M417.18,84.36,396,68.25a35.24,35.24,0,1,1,14.34-13.34c-.54.91-1.13,1.78-1.74,2.62Z" fill="none" stroke="#2093cd" stroke-linecap="round" stroke-linejoin="round" stroke-width="3"/>
        <rect x="620.55" y="383.61" width="106.15" height="21" transform="translate(279.52 1067.74) rotate(-90)" fill="#957e6e" stroke="#165183" stroke-miterlimit="10" stroke-width="3"/>
        <rect x="14.36" y="383.61" width="106.15" height="21" transform="translate(-326.68 461.54) rotate(-90)" fill="#957e6e" stroke="#165183" stroke-miterlimit="10" stroke-width="3"/>
        <rect x="6.93" y="332.62" width="727.2" height="21" fill="#b19b8a" stroke="#165183" stroke-miterlimit="10" stroke-width="3"/>
        <g>
          <rect x="54.08" y="320.69" width="79.29" height="11.48" rx="5.74" ry="5.74" fill="#888" stroke="#165183" stroke-miterlimit="10" stroke-width="3"/>
          <path d="M255.56,259.18a11.6,11.6,0,0,0-10-14.58l-87,0c-7.21-.72-14.53,5.58-17.66,15l-21.58,72.57H238.47Z" fill="#a4a4a3" stroke="#165183" stroke-miterlimit="10" stroke-width="3"/>
        </g>
        <line x1="594.46" y1="55.08" x2="609.42" y2="70.04" fill="none" stroke="#2093cd" stroke-linecap="round" stroke-linejoin="round" stroke-width="3"/>
        <line x1="630.95" y1="35.08" x2="631.15" y2="56.24" fill="none" stroke="#2093cd" stroke-linecap="round" stroke-linejoin="round" stroke-width="3"/>
        <line x1="666.52" y1="55.08" x2="651.56" y2="70.04" fill="none" stroke="#2093cd" stroke-linecap="round" stroke-linejoin="round" stroke-width="3"/>
        <line x1="246.97" y1="64.82" x2="261.93" y2="79.78" fill="none" stroke="#2093cd" stroke-linecap="round" stroke-linejoin="round" stroke-width="3"/>
        <line x1="283.45" y1="44.83" x2="283.65" y2="65.99" fill="none" stroke="#2093cd" stroke-linecap="round" stroke-linejoin="round" stroke-width="3"/>
        <line x1="319.02" y1="64.82" x2="304.06" y2="79.78" fill="none" stroke="#2093cd" stroke-linecap="round" stroke-linejoin="round" stroke-width="3"/>
        <path d="M32.28,105.12H47.2a3.49,3.49,0,0,0,3.48-3.48V60.74a3.49,3.49,0,0,0-3.48-3.48H5.48A3.49,3.49,0,0,0,2,60.74v40.9a3.49,3.49,0,0,0,3.48,3.48H32.28Z" fill="none" stroke="#2093cd" stroke-linecap="round" stroke-linejoin="round" stroke-width="3"/>
        <g>
          <line x1="10.65" y1="91.78" x2="42.03" y2="91.78" fill="none" stroke="#2093cd" stroke-linecap="round" stroke-miterlimit="10" stroke-width="3"/>
          <line x1="10.65" y1="81.19" x2="42.03" y2="81.19" fill="none" stroke="#2093cd" stroke-linecap="round" stroke-miterlimit="10" stroke-width="3"/>
          <line x1="10.65" y1="70.6" x2="42.03" y2="70.6" fill="none" stroke="#2093cd" stroke-linecap="round" stroke-miterlimit="10" stroke-width="3"/>
        </g>
        <path d="M25.24,113.72c-.67,24,5.72,42.09,26.81,56" fill="none" stroke="#2093cd" stroke-linecap="round" stroke-miterlimit="10" stroke-width="3" stroke-dasharray="6.83 5.31"/>
      </g>
    </g>
  </g>
</svg>
