<svg xmlns="http://www.w3.org/2000/svg" viewBox="0 0 153 153">
  <title>note-icon</title>
  <g id="image">
    <text transform="translate(-548.5 -140.4)" font-size="22" fill="#135182" font-family="DINNextLTPro-Regular, DIN Next LT Pro">Dara is managing a new project, and Allie eagerly jumped in to the work. <tspan x="0" y="29">However, Allie has missed some important details in a few instances, and </tspan><tspan x="0" y="58">Dara wants to make sure that Allie has some tools to improve on this. To </tspan><tspan x="0" y="87">give Allie effective guidance, </tspan><tspan x="274.18" y="87" font-family="DINNextLTPro-Bold, DIN Next LT Pro" font-weight="700">Dara should:</tspan></text>
    <g>
      <rect x="36.29" y="42.06" width="68.87" height="68.87" fill="#ffffff" stroke="#2093cd" stroke-linecap="round" stroke-linejoin="round" stroke-width="3"/>
      <polygon points="115.2 53.21 87.83 88.14 85.39 100.63 87.79 102.51 99.33 97.16 126.71 62.22 115.2 53.21" fill="#fff" stroke="#2093cd" stroke-linecap="round" stroke-linejoin="round" stroke-width="3"/>
      <path d="M44.33,59.28c2-.72,5.32-2.09,7.49-1.66Q54.56,57,54,60.79a12,12,0,0,1,2.43-1.34,21.42,21.42,0,0,1,5.51-1.71,32.37,32.37,0,0,1,4-.41A5,5,0,0,1,70.55,59l.5,3.68a35.15,35.15,0,0,1,20.73-.52,1.88,1.88,0,0,0,1-3.62A38.81,38.81,0,0,0,70,59c-1.89.62-1.71,3.92.5,3.68,6.58-.7,4-8.37-1.39-9.1a27.83,27.83,0,0,0-14,2.26c-2.3,1-6.45,3-6.34,6.15.21,6,9.71,2.75,10.56-1.6,1.77-9-11.75-6.3-16-4.77-2.26.8-1.29,4.43,1,3.62Z" fill="#2093cd"/>
      <path d="M45.7,75a56.64,56.64,0,0,1,7.4-.84q1.32-.07,2.65-.05,4-.54-.49,2.29l1.81,2.37c2.55-6.19,11.84-2.52,16.22-4.69L76,76.22c.69-2.91,13.48-1.66,15.78-1.68s2.42-3.77,0-3.75c-4.64,0-9.76-.53-14.35.18-2.61.4-4.43,1.65-5,4.25a1.9,1.9,0,0,0,2.75,2.12,3,3,0,0,0,1.56-4.06c-1.09-2.44-4.44-2.45-6.68-2.5-5.94-.15-14.07.84-16.61,7a1.88,1.88,0,0,0,1.81,2.37c3.34-.17,9.29-4,6.61-8.22-1.11-1.74-3.38-1.51-5.24-1.55a60.67,60.67,0,0,0-11.93,1c-2.37.41-1.37,4,1,3.62Z" fill="#2093cd"/>
      <path d="M45.2,89.94c2.43,0,4.85,0,7.27.13q1.82.1,3.62.28,2.35-.66,1.65.85c2.13.16,5.41-1.15,7.56-1.34a54.13,54.13,0,0,1,7.06-.07c2.41.11,2.41-3.64,0-3.75-4.95-.22-21.43-1-19.88,7.56a1.86,1.86,0,0,0,1.31,1.31,8.08,8.08,0,0,0,9.1-4,1.88,1.88,0,0,0,0-1.89c-1.38-1.87-2.71-1.94-5-2.21a100.37,100.37,0,0,0-12.7-.61c-2.41,0-2.42,3.78,0,3.75Z" fill="#2093cd"/>
    </g>
  </g>
</svg>
