<svg xmlns="http://www.w3.org/2000/svg" viewBox="0 0 153 153">
  <title>ribbon-icon</title>
  <g id="image">
    <text transform="translate(-181.83 -165.38)" font-size="22" fill="#135182" font-family="DINNextLTPro-Regular, DIN Next LT Pro">Dara can see how hard Allie and Pete are working, both on their own <tspan x="0" y="29">projects and with Teague and Reese, Panasonic’s interns. She wants to </tspan><tspan x="0" y="58">support her team and recognize them for their hard work and how they </tspan><tspan x="0" y="87">maintain Panasonic Avionic’s values. To demonstrate her support, </tspan><tspan font-family="DINNextLTPro-Bold, DIN Next LT Pro" font-weight="700"><tspan x="0" y="116">Dara should:</tspan></tspan></text>
    <g>
      <path d="M88.11,125.43l-10.55-8.57a1.61,1.61,0,0,0-2.12,0l-10.55,8.57c-1.41,1.14-3.17-.27-3.17-2.54V77.13c0-1.62.94-2.94,2.11-2.94H89.17c1.17,0,2.11,1.32,2.11,2.94v45.75C91.28,125.15,89.52,126.57,88.11,125.43Z" fill="#ffffff" stroke="#2093cd" stroke-miterlimit="10" stroke-width="3"/>
      <g>
        <path d="M79.42,28.63l3.82,5.08a3.66,3.66,0,0,0,4,1.3l6.08-1.86a3.66,3.66,0,0,1,4.73,3.44l.11,6.36a3.66,3.66,0,0,0,2.47,3.4l6,2.07A3.66,3.66,0,0,1,108.45,54l-3.65,5.21a3.66,3.66,0,0,0,0,4.2l3.65,5.21a3.66,3.66,0,0,1-1.81,5.56l-6,2.07a3.66,3.66,0,0,0-2.47,3.4L98.05,86a3.66,3.66,0,0,1-4.73,3.44l-6.08-1.86a3.66,3.66,0,0,0-4,1.3l-3.82,5.08a3.66,3.66,0,0,1-5.85,0l-3.82-5.08a3.66,3.66,0,0,0-4-1.3l-6.08,1.86A3.66,3.66,0,0,1,54.95,86l-.11-6.36a3.66,3.66,0,0,0-2.47-3.4l-6-2.07a3.66,3.66,0,0,1-1.81-5.56l3.65-5.21a3.66,3.66,0,0,0,0-4.2L44.55,54a3.66,3.66,0,0,1,1.81-5.56l6-2.07a3.66,3.66,0,0,0,2.47-3.4l.11-6.36a3.66,3.66,0,0,1,4.73-3.44L65.76,35a3.66,3.66,0,0,0,4-1.3l3.82-5.08A3.66,3.66,0,0,1,79.42,28.63Z" fill="#fff" stroke="#2093cd" stroke-miterlimit="10" stroke-width="3"/>
        <g>
          <circle cx="76.5" cy="61.28" r="27" fill="#fff" stroke="#2093cd" stroke-miterlimit="10" stroke-width="3"/>
          <polygon points="76.5 42.73 82.03 53.93 94.4 55.73 85.45 64.45 87.56 76.77 76.5 70.95 65.44 76.77 67.55 64.45 58.6 55.73 70.97 53.93 76.5 42.73" fill="#fff" stroke="#2093cd" stroke-linecap="round" stroke-linejoin="round" stroke-width="3"/>
        </g>
      </g>
    </g>
  </g>
</svg>
